2021-06-24 12:00:04,230 INFO  [main] Initializing WebDriver
2021-06-24 12:01:08,739 INFO  [main] Initializing WebDriver
2021-06-24 12:01:08,784 INFO  [main] POST URL: https://api.trello.com/1/boards/?name=Trello Board - 1624525268784&key=654e05e81c0674f923b7651dd6c4b81a&token=dc8912cb5f8ddcce12f49e6ec2ce8f05988bf00f331187b9eb48d1667071de9d&defaultLists=true
2021-06-24 12:01:16,702 INFO  [main] Initializing WebDriver
2021-06-24 12:01:19,660 INFO  [main] Clicking on element trello.loginPage.loginButton
2021-06-24 12:01:25,120 INFO  [main] Clicking on element trello.loginPage.loginButton
2021-06-24 12:01:25,622 INFO  [main] Initializing WebDriver
2021-06-24 12:01:41,426 INFO  [main] Clicking on element trello.boardsPage.boardByTeamAndName
2021-06-24 12:01:43,771 INFO  [main] Deleting at URL: https://api.trello.com/1/boards/60d449db89a2bb0add5a2185?key=654e05e81c0674f923b7651dd6c4b81a&token=dc8912cb5f8ddcce12f49e6ec2ce8f05988bf00f331187b9eb48d1667071de9d
2021-06-24 12:01:44,754 INFO  [main] Quitting WebDriver
